%YAML 1.1
%TAG !u! tag:unity3d.com,2011:
--- !u!114 &11400000
MonoBehaviour:
  m_ObjectHideFlags: 0
  m_CorrespondingSourceObject: {fileID: 0}
  m_PrefabInstance: {fileID: 0}
  m_PrefabAsset: {fileID: 0}
  m_GameObject: {fileID: 0}
  m_Enabled: 1
  m_EditorHideFlags: 0
  m_Script: {fileID: 11500000, guid: bbb281ee3bf0b054c82ac2347e9e782c, type: 3}
  m_Name: Default Local Group
  m_EditorClassIdentifier: 
  m_GroupName: Default Local Group
  m_Data:
    m_SerializedData: []
  m_GUID: 5fcdf03629d63f74b9d5af2e738dde04
  m_SerializeEntries: []
  m_ReadOnly: 0
  m_Settings: {fileID: 11400000, guid: 5f736773065ab6642811dac8d7c885f6, type: 2}
  m_SchemaSet:
    m_Schemas:
    - {fileID: 11400000, guid: 58bf523e3e641a94e923c52c785933d0, type: 2}
    - {fileID: 11400000, guid: 6cb7152d13f0bd54e82b52d31d1d9d68, type: 2}
