%YAML 1.1
%TAG !u! tag:unity3d.com,2011:
--- !u!1045 &1
EditorBuildSettings:
  m_ObjectHideFlags: 0
  serializedVersion: 2
  m_Scenes:
  - enabled: 1
    path: Assets/JeanMedecin/Scenes/JeanMedecin_Chris.unity
    guid: b3903f3ca27a1b1419896da0c227ab31
  - enabled: 1
    path: Assets/Scenes/Appart_Chris_V2.unity
    guid: 50071ba55686f6d4f80c10872eb713c3
  - enabled: 1
    path: Assets/Scenes/Scandinavi_Room 1.unity
    guid: 418838bc5165a6041a393a634f95c165
  m_configObjects:
    com.unity.addressableassets: {fileID: 11400000, guid: 9193bc8e19f5cdb429a608fdd4740430,
      type: 2}
