%YAML 1.1
%TAG !u! tag:unity3d.com,2011:
--- !u!47 &1
QualitySettings:
  m_ObjectHideFlags: 0
  serializedVersion: 5
  m_CurrentQuality: 0
  m_QualitySettings:
  - serializedVersion: 3
    name: Low
    pixelLightCount: 0
    shadows: 1
    shadowResolution: 1
    shadowProjection: 1
    shadowCascades: 1
    shadowDistance: 18
    shadowNearPlaneOffset: 3
    shadowCascade2Split: 0.33333334
    shadowCascade4Split: {x: 0.06666667, y: 0.2, z: 0.46666667}
    shadowmaskMode: 0
    skinWeights: 2
    globalTextureMipmapLimit: 0
    textureMipmapLimitSettings: []
    anisotropicTextures: 1
    antiAliasing: 2
    softParticles: 0
    softVegetation: 0
    realtimeReflectionProbes: 0
    billboardsFaceCameraPosition: 0
    useLegacyDetailDistribution: 1
    vSyncCount: 0
    lodBias: 0.4
    maximumLODLevel: 0
    enableLODCrossFade: 1
    streamingMipmapsActive: 0
    streamingMipmapsAddAllCameras: 1
    streamingMipmapsMemoryBudget: 512
    streamingMipmapsRenderersPerFrame: 512
    streamingMipmapsMaxLevelReduction: 2
    streamingMipmapsMaxFileIORequests: 1024
    particleRaycastBudget: 16
    asyncUploadTimeSlice: 2
    asyncUploadBufferSize: 4
    asyncUploadPersistentBuffer: 1
    resolutionScalingFixedDPIFactor: 1
    customRenderPipeline: {fileID: 11400000, guid: 63e3d2eb953ba6d4f99beaf4ffbb4c1e,
      type: 2}
    terrainQualityOverrides: 0
    terrainPixelError: 1
    terrainDetailDensityScale: 1
    terrainBasemapDistance: 1000
    terrainDetailDistance: 80
    terrainTreeDistance: 5000
    terrainBillboardStart: 50
    terrainFadeLength: 5
    terrainMaxTrees: 50
    excludedTargetPlatforms: []
  m_TextureMipmapLimitGroupNames: []
  m_PerPlatformDefaultQuality:
    Android: 0
    Nintendo 3DS: 0
    Nintendo Switch: 0
    PS4: 0
    PSP2: 0
    Server: 0
    Standalone: 0
    Tizen: 0
    WebGL: 0
    WiiU: 0
    Windows Store Apps: 0
    XboxOne: 0
    iPhone: 0
    tvOS: 0
